Dan,Rm.Valcea Nr 79,075343234,1995-07-10
Dan,Rm.Valcea Nr 79,075343234,1995-07-10
Dan,Rm.Valcea Nr 79,075343234,1995-07-10
Dan,Rm.Valcea Nr 79,075343234,1995-07-10
Dan,Rm.Valcea Nr 79,075343234,1995-07-10
